%YAML 1.1
%TAG !u! tag:unity3d.com,2011:
--- !u!1045 &1
EditorBuildSettings:
  m_ObjectHideFlags: 0
  serializedVersion: 2
  m_Scenes:
  - enabled: 1
    path: Assets/Scenes/Menu.unity
    guid: e0adc28a98dc51445b50ba5ed7b3b571
  - enabled: 1
    path: Assets/Scenes/Game.unity
    guid: 9fc0d4010bbf28b4594072e72b8655ab
  - enabled: 1
    path: Assets/Scenes/Win.unity
    guid: d1db76dfcd4ff014689e6e953a37c421
  - enabled: 1
    path: Assets/Scenes/Lose.unity
    guid: 090f2ca6951161344b17a09113b95a56
  m_configObjects: {}
